<?xml version="1.0" encoding="UTF-8" standalone="no"?>
<!-- Created with Inkscape (http://www.inkscape.org/) -->

<svg
   xmlns:dc="http://purl.org/dc/elements/1.1/"
   xmlns:cc="http://creativecommons.org/ns#"
   xmlns:rdf="http://www.w3.org/1999/02/22-rdf-syntax-ns#"
   xmlns:svg="http://www.w3.org/2000/svg"
   xmlns="http://www.w3.org/2000/svg"
   xmlns:sodipodi="http://sodipodi.sourceforge.net/DTD/sodipodi-0.dtd"
   xmlns:inkscape="http://www.inkscape.org/namespaces/inkscape"
   width="59mm"
   height="88mm"
   viewBox="0 0 59 88"
   version="1.1"
   id="svg8"
   inkscape:version="0.92.4 (5da689c313, 2019-01-14)"
   sodipodi:docname="layout_helpers.svg"
   enable-background="new">
  <defs
     id="defs2" />
  <sodipodi:namedview
     id="base"
     pagecolor="#ffffff"
     bordercolor="#666666"
     borderopacity="1.0"
     inkscape:pageopacity="0.0"
     inkscape:pageshadow="2"
     inkscape:zoom="1.4564347"
     inkscape:cx="-13.681243"
     inkscape:cy="169.97702"
     inkscape:document-units="mm"
     inkscape:current-layer="layer15"
     showgrid="false"
     inkscape:window-width="1234"
     inkscape:window-height="739"
     inkscape:window-x="0"
     inkscape:window-y="0"
     inkscape:window-maximized="1" />
  <metadata
     id="metadata5">
    <rdf:RDF>
      <cc:Work
         rdf:about="">
        <dc:format>image/svg+xml</dc:format>
        <dc:type
           rdf:resource="http://purl.org/dc/dcmitype/StillImage" />
        <dc:title />
      </cc:Work>
    </rdf:RDF>
  </metadata>
  <g
     inkscape:groupmode="layer"
     id="layer3"
     inkscape:label="sample content"
     style="display:inline">
    <circle
       style="opacity:0.5;fill:#4591ff;fill-opacity:1;stroke:none;stroke-width:0.2;stroke-linecap:round;stroke-linejoin:round;stroke-miterlimit:4;stroke-dasharray:none;stroke-dashoffset:0;stroke-opacity:1"
       id="path1274"
       cx="12.258756"
       cy="77.163109"
       r="20" />
    <circle
       cy="25.929111"
       cx="8.1981201"
       id="ellipse1276"
       style="opacity:0.5;fill:#66e60c;fill-opacity:1;stroke:none;stroke-width:0.2;stroke-linecap:round;stroke-linejoin:round;stroke-miterlimit:4;stroke-dasharray:none;stroke-dashoffset:0;stroke-opacity:1"
       r="30" />
    <circle
       style="opacity:0.5;fill:#ff911a;fill-opacity:1;stroke:none;stroke-width:0.19999999;stroke-linecap:round;stroke-linejoin:round;stroke-miterlimit:4;stroke-dasharray:none;stroke-dashoffset:0;stroke-opacity:1"
       id="ellipse1278"
       cx="52.512352"
       cy="3.8907177"
       r="15" />
    <circle
       cy="82.423569"
       cx="55.413227"
       id="circle1280"
       style="opacity:0.6;fill:#fefe00;fill-opacity:1;stroke:none;stroke-width:0.2;stroke-linecap:round;stroke-linejoin:round;stroke-miterlimit:4;stroke-dasharray:none;stroke-dashoffset:0;stroke-opacity:1"
       r="10" />
    <circle
       r="10"
       style="opacity:0.6;fill:#fefe00;fill-opacity:1;stroke:none;stroke-width:0.2;stroke-linecap:round;stroke-linejoin:round;stroke-miterlimit:4;stroke-dasharray:none;stroke-dashoffset:0;stroke-opacity:1"
       id="circle1282"
       cx="42.61647"
       cy="20.651567" />
    <circle
       r="20"
       cy="59.94278"
       cx="53.966705"
       id="circle1284"
       style="opacity:0.5;fill:#4591ff;fill-opacity:1;stroke:none;stroke-width:0.2;stroke-linecap:round;stroke-linejoin:round;stroke-miterlimit:4;stroke-dasharray:none;stroke-dashoffset:0;stroke-opacity:1" />
    <circle
       r="15"
       cy="56.18364"
       cx="28.024731"
       id="circle1286"
       style="opacity:0.5;fill:#ff911a;fill-opacity:1;stroke:none;stroke-width:0.19999999;stroke-linecap:round;stroke-linejoin:round;stroke-miterlimit:4;stroke-dasharray:none;stroke-dashoffset:0;stroke-opacity:1" />
  </g>
  <g
     inkscape:groupmode="layer"
     id="layer5"
     inkscape:label="edge clip"
     style="display:none">
    <path
       style="opacity:1;fill:#ffffff;fill-opacity:1;stroke:none;stroke-width:0.75590551;stroke-linecap:round;stroke-linejoin:round;stroke-miterlimit:4;stroke-dasharray:none;stroke-dashoffset:0;stroke-opacity:1"
       d="M 0.37890625,-0.37890625 V 332.2207 H 223.36914 V -0.37890625 Z M 26.457031,7.5585938 H 196.53516 c 10.46927,0 18.89843,8.4291672 18.89843,18.8984372 V 306.14258 c 0,10.46927 -8.42916,18.89648 -18.89843,18.89648 H 26.457031 c -10.46927,0 -18.8984373,-8.42721 -18.8984372,-18.89648 V 26.457031 c 0,-10.46927 8.4291672,-18.8984373 18.8984372,-18.8984372 z"
       transform="scale(0.26458333)"
       id="rect1098"
       inkscape:connector-curvature="0" />
  </g>
  <g
     inkscape:groupmode="layer"
     id="layer2"
     inkscape:label="edge filter"
     style="display:inline">
    <path
       style="display:inline;opacity:0.5;fill:#ffffff;fill-opacity:1;stroke:none;stroke-width:0.40000001;stroke-linecap:round;stroke-linejoin:round;stroke-miterlimit:4;stroke-dasharray:0.39999999, 0.79999998;stroke-dashoffset:0;stroke-opacity:0.4"
       d="M 0,3.6666666e-7 V 87.999797 H 59.000016 V 3.6666666e-7 Z M 7.0000894,1.999878 H 51.999927 c 2.769994,0 5.00021,2.2302171 5.00021,5.0002114 V 81.000224 c 0,2.769994 -2.230216,4.999693 -5.00021,4.999693 H 7.0000894 c -2.7699944,0 -5.0002115,-2.229699 -5.0002115,-4.999693 V 7.0000894 c 0,-2.7699943 2.2302171,-5.0002114 5.0002115,-5.0002114 z"
       id="rect820"
       inkscape:connector-curvature="0" />
  </g>
  <g
     inkscape:groupmode="layer"
     id="layer4"
     inkscape:label="cut area shadow"
     style="display:inline">
    <path
       style="opacity:0.2;fill:#010101;fill-opacity:1;stroke:none;stroke-width:1.5118109;stroke-linecap:round;stroke-linejoin:round;stroke-miterlimit:4;stroke-dasharray:1.51181099, 3.02362178;stroke-dashoffset:0;stroke-opacity:0.4"
       mask="none"
       d="m 24.462891,6.8027344 c -10.621551,0 -19.1718754,8.5091476 -19.1718754,19.0781246 V 308.23047 c 0,10.56898 8.5503244,19.07617 19.1718754,19.07617 H 197.01562 c 10.62156,0 19.17383,-8.50719 19.17383,-19.07617 V 25.880859 c 0,-10.568977 -8.55227,-19.0781246 -19.17383,-19.0781246 z m 1.99414,0.7558594 H 196.53516 c 10.46927,0 18.89843,8.4291672 18.89843,18.8984372 V 306.14258 c 0,10.46927 -8.42916,18.89648 -18.89843,18.89648 H 26.457031 c -10.46927,0 -18.8984373,-8.42721 -18.8984372,-18.89648 V 26.457031 c 0,-10.46927 8.4291672,-18.8984372 18.8984372,-18.8984372 z"
       transform="scale(0.26458333)"
       id="rect830"
       inkscape:connector-curvature="0" />
    <path
       style="opacity:0.2;fill:#010101;fill-opacity:1;stroke:none;stroke-width:1.51181102;stroke-linecap:round;stroke-linejoin:round;stroke-miterlimit:4;stroke-dasharray:1.51181095, 3.02362171;stroke-dashoffset:0;stroke-opacity:0.4"
       mask="none"
       d="m 24.773438,7.1816406 c -10.583481,0 -19.1035161,8.4872004 -19.1035161,19.0312504 V 307.89648 c 0,10.54405 8.5200351,19.03321 19.1035161,19.03321 H 196.70703 c 10.58348,0 19.10352,-8.48916 19.10352,-19.03321 V 26.212891 c 0,-10.54405 -8.52004,-19.0312504 -19.10352,-19.0312504 z m 1.683593,0.3769532 H 196.53516 c 10.46927,0 18.89843,8.4291672 18.89843,18.8984372 V 306.14258 c 0,10.46927 -8.42916,18.89648 -18.89843,18.89648 H 26.457031 c -10.46927,0 -18.8984373,-8.42721 -18.8984372,-18.89648 V 26.457031 c 0,-10.46927 8.4291672,-18.8984372 18.8984372,-18.8984372 z"
       transform="scale(0.26458333)"
       id="rect1081"
       inkscape:connector-curvature="0" />
    <path
       style="opacity:0.3;fill:#010101;fill-opacity:1;stroke:none;stroke-width:1.5118109;stroke-linecap:round;stroke-linejoin:round;stroke-miterlimit:4;stroke-dasharray:1.51181102, 3.0236219;stroke-dashoffset:0;stroke-opacity:0.4"
       mask="none"
       d="M 17.023438,10.083984 C 10.536175,13.087154 6.046875,19.622097 6.046875,27.257812 V 307.60938 c 0,10.49419 8.459456,18.9414 18.966797,18.9414 H 195.71094 c 7.66202,0 14.21694,-4.50177 17.21484,-11.0039 -3.25319,5.67576 -9.35385,9.49218 -16.39062,9.49218 H 26.457031 c -10.46927,0 -18.8984373,-8.42721 -18.8984372,-18.89648 V 26.457031 c 0,-7.024506 3.8054892,-13.115572 9.4648442,-16.373047 z"
       transform="scale(0.26458333)"
       id="rect1079"
       inkscape:connector-curvature="0" />
    <path
       style="opacity:0.4;fill:#010101;fill-opacity:1;stroke:none;stroke-width:1.5118109;stroke-linecap:round;stroke-linejoin:round;stroke-miterlimit:4;stroke-dasharray:1.51181099, 3.02362178;stroke-dashoffset:0;stroke-opacity:0.4"
       mask="none"
       d="m 12.908203,13.271484 c -3.5320916,3.42979 -5.7265624,8.227489 -5.7265624,13.5625 V 306.51953 c 0,10.46927 8.4272144,18.89844 18.8964844,18.89844 H 196.1582 c 5.33562,0 10.13264,-2.19768 13.5625,-5.73047 -3.40058,3.30981 -8.04332,5.35156 -13.18554,5.35156 H 26.457031 c -10.46927,0 -18.8984373,-8.42721 -18.8984372,-18.89648 V 26.457031 c 0,-5.141749 2.0403444,-9.785044 5.3496092,-13.185547 z"
       transform="scale(0.26458333)"
       id="rect1083"
       inkscape:connector-curvature="0" />
  </g>
  <g
     inkscape:groupmode="layer"
     id="layer12"
     inkscape:label="secure area 51x80mm"
     style="display:inline">
    <rect
       transform="translate(0,-209)"
       style="display:inline;opacity:0.5;fill:none;fill-opacity:1;stroke:#00ffff;stroke-width:0.2;stroke-linecap:round;stroke-linejoin:round;stroke-miterlimit:4;stroke-dasharray:none;stroke-dashoffset:0;stroke-opacity:1"
       id="rect897"
       width="51"
       height="80"
       x="4"
       y="213"
       rx="4.6363544"
       ry="4.7618952" />
  </g>
  <g
     inkscape:groupmode="layer"
     id="layer13"
     inkscape:label="cut area 55x84mm"
     style="display:inline">
    <rect
       transform="translate(0,-209)"
       ry="4.99999"
       rx="4.99999"
       y="211"
       x="2"
       height="84"
       width="55"
       id="rect895"
       style="display:inline;opacity:0.5;fill:none;fill-opacity:1;stroke:#00ff00;stroke-width:0.2;stroke-linecap:round;stroke-linejoin:round;stroke-miterlimit:4;stroke-dasharray:none;stroke-dashoffset:0;stroke-opacity:1" />
  </g>
  <g
     inkscape:groupmode="layer"
     id="layer14"
     inkscape:label="printed area 59x88mm"
     style="display:inline">
    <rect
       style="display:inline;opacity:0.5;fill:none;fill-opacity:1;stroke:#ffff00;stroke-width:0.2;stroke-linecap:round;stroke-linejoin:round;stroke-miterlimit:4;stroke-dasharray:none;stroke-dashoffset:0;stroke-opacity:1"
       id="rect899"
       x="0.1"
       y="0.1"
       width="58.799999"
       height="87.800003" />
  </g>
  <g
     inkscape:groupmode="layer"
     id="layer15"
     inkscape:label="specifications"
     style="display:inline">
    <text
       xml:space="preserve"
       style="font-style:normal;font-variant:normal;font-weight:normal;font-stretch:normal;font-size:3.52778673px;line-height:1.25;font-family:Quicksand;-inkscape-font-specification:Quicksand;letter-spacing:0px;word-spacing:0px;fill:#000000;fill-opacity:1;stroke:none;stroke-width:0.26458332"
       x="6.9975801"
       y="64.735718"
       id="text1291"
       transform="scale(1.0000025,0.9999975)"><tspan
         sodipodi:role="line"
         id="tspan1289"
         x="6.9975801"
         y="64.735718"
         style="font-style:normal;font-variant:normal;font-weight:normal;font-stretch:normal;font-size:3.52778673px;font-family:Quicksand;-inkscape-font-specification:Quicksand;stroke-width:0.26458332"><tspan
   style="font-weight:bold"
   id="tspan1299">printed area :</tspan> 59 x 88 mm</tspan><tspan
         sodipodi:role="line"
         x="6.9975801"
         y="69.145454"
         style="font-style:normal;font-variant:normal;font-weight:normal;font-stretch:normal;font-size:3.52778673px;font-family:Quicksand;-inkscape-font-specification:Quicksand;stroke-width:0.26458332"
         id="tspan1293"><tspan
   style="font-weight:bold"
   id="tspan1301">trimmed area :</tspan> 55 x 84 mm</tspan><tspan
         sodipodi:role="line"
         x="6.9975801"
         y="73.555183"
         style="font-style:normal;font-variant:normal;font-weight:normal;font-stretch:normal;font-size:3.52778673px;font-family:Quicksand;-inkscape-font-specification:Quicksand;stroke-width:0.26458332"
         id="tspan1295"><tspan
   style="font-weight:bold"
   id="tspan1303">safe area :</tspan> 51 x 80 mm</tspan><tspan
         sodipodi:role="line"
         x="6.9975801"
         y="77.96492"
         style="font-style:normal;font-variant:normal;font-weight:normal;font-stretch:normal;font-size:3.52778673px;font-family:Quicksand;-inkscape-font-specification:Quicksand;stroke-width:0.26458332"
         id="tspan1297"><tspan
   style="font-weight:bold"
   id="tspan1305">round corners :</tspan> 5 mm</tspan></text>
  </g>
</svg>
